%YAML 1.1
%TAG !u! tag:unity3d.com,2011:
--- !u!114 &11400000
MonoBehaviour:
  m_ObjectHideFlags: 0
  m_CorrespondingSourceObject: {fileID: 0}
  m_PrefabInstance: {fileID: 0}
  m_PrefabAsset: {fileID: 0}
  m_GameObject: {fileID: 0}
  m_Enabled: 1
  m_EditorHideFlags: 0
  m_Script: {fileID: 11500000, guid: 708af2c28e5da8447a8b7816361c6fd5, type: 3}
  m_Name: Slave1
  m_EditorClassIdentifier: 
  m_Class: 1
  m_Speed: 6
  m_Damage: 4.5
  m_Vida: 11
  casco: 1
  arma: 1
  botas: 1
  trans: {x: -7.079112, y: 2.7291296, z: 0}
